{
	"name" 			: "images",
	"version" 		: "1.0.0",
	"description" 	: "These are the images settings.",
	"author" : {
		"name" 	: "Jonathan Hattab",
		"email" : "jonathanhattab@madjoh.com"
	},
	"dependencies" : {},
	"devDependencies" : {}
}